verilator/dump.vcd
$version Generated by VerilatedVcd $end
$date Mon Mar 30 16:21:52 2026
 $end
$timescale   1ps $end

 $scope module TOP $end
  $var wire  1 + clk $end
  $var wire  1 , rst_b $end
  $var wire 24 - x [23:0] $end
  $var wire  1 . x_dv $end
  $var wire 25 / y [24:0] $end
  $var wire  1 0 y_dv $end
  $scope module $unit $end
   $var wire 32 E A_F [31:0] $end
   $var wire 32 ? A_I [31:0] $end
   $var wire 32 > A_W [31:0] $end
   $var wire 32 G B_F [31:0] $end
   $var wire 32 F B_I [31:0] $end
   $var wire 32 H B_W [31:0] $end
   $var wire 32 I C_F [31:0] $end
   $var wire 32 ? C_I [31:0] $end
   $var wire 32 J C_W [31:0] $end
   $var wire 32 A X1_F [31:0] $end
   $var wire 32 < X1_I [31:0] $end
   $var wire 32 B X1_W [31:0] $end
   $var wire 32 D X2_F [31:0] $end
   $var wire 32 C X2_I [31:0] $end
   $var wire 32 D X2_W [31:0] $end
   $var wire 32 = X_F [31:0] $end
   $var wire 32 < X_I [31:0] $end
   $var wire 32 > X_W [31:0] $end
   $var wire 32 = Y_F [31:0] $end
   $var wire 32 ? Y_I [31:0] $end
   $var wire 32 @ Y_W [31:0] $end
  $upscope $end
  $scope module quadra_top $end
   $var wire 24 ' a_lut [23:0] $end
   $var wire 19 ( b_lut [18:0] $end
   $var wire 13 ) c_lut [12:0] $end
   $var wire  1 + clk $end
   $var wire  1 # dv_p0 $end
   $var wire  1 $ dv_p1 $end
   $var wire  1 % dv_p2 $end
   $var wire  1 , rst_b $end
   $var wire 24 - x [23:0] $end
   $var wire  7 1 x1 [6:0] $end
   $var wire 17 2 x2 [16:0] $end
   $var wire 17 & x2_q [16:0] $end
   $var wire  1 . x_dv $end
   $var wire 25 / y [24:0] $end
   $var wire  1 0 y_dv $end
   $var wire 25 3 y_raw [24:0] $end
   $scope module i_lut $end
    $var wire 24 ' a [23:0] $end
    $var wire 19 ( b [18:0] $end
    $var wire 13 ) c [12:0] $end
    $var wire  7 1 x1 [6:0] $end
   $upscope $end
   $scope module i_quadra $end
    $var wire 24 ' a [23:0] $end
    $var wire 19 ( b [18:0] $end
    $var wire 36 6 b_x2 [35:0] $end
    $var wire 13 ) c [12:0] $end
    $var wire 47 8 c_x2sq [46:0] $end
    $var wire  1 + clk $end
    $var wire  1 , rst $end
    $var wire 25 * term_a [24:0] $end
    $var wire 25 : term_b [24:0] $end
    $var wire 25 ; term_c [24:0] $end
    $var wire 17 2 x2 [16:0] $end
    $var wire 34 4 x2_sq [33:0] $end
    $var wire 25 3 y [24:0] $end
   $upscope $end
  $upscope $end
 $upscope $end
$enddefinitions $end


#500
1#
1$
1%
b00000010010111000 &
b110100101011001011000011 '
b0010110101000001010 (
b0101101010000 )
b1101001010110010110000110 *
0+
1,
b000000000000000000000000 -
0.
b1010010000100110010001011 /
10
b0000000 1
b00000000000000000 2
b1101001010110010110101110 3
b0000000000000000000000000000000000 4
b000000000000000000000000000000000000 6
b00000000000000000000000000000000000000000000000 8
b0000000000000000000000000 :
b0000000000000000000000000 ;
b00000000000000000000000000000001 <
b00000000000000000000000000010111 =
b00000000000000000000000000011000 >
b00000000000000000000000000000010 ?
b00000000000000000000000000011001 @
b00000000000000000000000000000110 A
b00000000000000000000000000000111 B
b00000000000000000000000000000000 C
b00000000000000000000000000010001 D
b00000000000000000000000000010110 E
b00000000000000000000000000000011 F
b00000000000000000000000000010000 G
b00000000000000000000000000010011 H
b00000000000000000000000000001011 I
b00000000000000000000000000001101 J
#1000
0#
b00000000000000000 &
1+
b1101001010110010110101110 /
00
#1500
0+
0,
#2000
0$
0%
1+
b0000000000000000000000000 /
#2500
0+
1,
#3000
1+
b1101001010110010110101110 /
#3500
0+
#4000
1+
#4500
0+
#5000
1+
#5500
0+
#6000
1+
#6500
0+
#7000
1+
#7500
0+
#8000
1+
#8500
0+
#9000
1+
#9500
0+
#10000
1+
#10500
0+
#11000
1+
#11500
0+
#12000
1+
#12500
0+
#13000
1+
#13500
0+
#14000
1+
#14500
0+
#15000
1+
#15500
b111111010101010000000110 '
b1100000000001110010 (
b0000010101011 )
b1111110101010100000001100 *
0+
b111111111111111111110000 -
1.
b1111111 1
b11111111111110000 2
b1111101101010100111100001 3
b1111111111110000000000000100000000 4
b110000000001000000111111100011100000 6
b00000101010101111010101010000001010101100000000 8
b1111111000000000100000011 :
b0000000000000000010101010 ;
#16000
1#
b11111111111110000 &
1+
b1111101101010100111100001 /
10
#16500
0+
b111111111111111111110001 -
b11111111111110001 2
b1111101101010100111011111 3
b1111111111110001000000000011100001 4
b110000000001000000011111100101010010 6
b00000101010101111010111111011001001011001001011 8
b1111111000000000100000001 :
#17000
1$
b11111111111110001 &
1+
b1111101101010100111011111 /
#17500
0+
b111111111111111111110010 -
b11111111111110010 2
b1111101101010100111011101 3
b1111111111110010000000000011000100 4
b110000000000111111111111100111000100 6
b00000101010101111011010100110001000001011101100 8
b1111111000000000011111111 :
#18000
1%
b11111111111110010 &
1+
b1111101101010100111011101 /
#18500
0+
b111111111111111111110011 -
b11111111111110011 2
b1111101101010100111011011 3
b1111111111110011000000000010101001 4
b110000000000111111011111101000110110 6
b00000101010101111011101010001000111000011100011 8
b1111111000000000011111101 :
#19000
b11111111111110011 &
1+
b1111101101010100111011011 /
#19500
0+
b111111111111111111110100 -
b11111111111110100 2
b1111101101010100111011001 3
b1111111111110100000000000010010000 4
b110000000000111110111111101010101000 6
b00000101010101111011111111100000110000000110000 8
b1111111000000000011111011 :
#20000
b11111111111110100 &
1+
b1111101101010100111011001 /
#20500
0+
b111111111111111111110101 -
b11111111111110101 2
b1111101101010100111010111 3
b1111111111110101000000000001111001 4
b110000000000111110011111101100011010 6
b00000101010101111100010100111000101000011010011 8
b1111111000000000011111001 :
#21000
b11111111111110101 &
1+
b1111101101010100111010111 /
#21500
0+
b111111111111111111110110 -
b11111111111110110 2
b1111101101010100111010101 3
b1111111111110110000000000001100100 4
b110000000000111101111111101110001100 6
b00000101010101111100101010010000100001011001100 8
b1111111000000000011110111 :
#22000
b11111111111110110 &
1+
b1111101101010100111010101 /
#22500
0+
b111111111111111111110111 -
b11111111111110111 2
b1111101101010100111010011 3
b1111111111110111000000000001010001 4
b110000000000111101011111101111111110 6
b00000101010101111100111111101000011011000011011 8
b1111111000000000011110101 :
#23000
b11111111111110111 &
1+
b1111101101010100111010011 /
#23500
0+
b111111111111111111111000 -
b11111111111111000 2
b1111101101010100111010001 3
b1111111111111000000000000001000000 4
b110000000000111100111111110001110000 6
b00000101010101111101010101000000010101011000000 8
b1111111000000000011110011 :
#24000
b11111111111111000 &
1+
b1111101101010100111010001 /
#24500
0+
b111111111111111111111001 -
b11111111111111001 2
b1111101101010100111001111 3
b1111111111111001000000000000110001 4
b110000000000111100011111110011100010 6
b00000101010101111101101010011000010000010111011 8
b1111111000000000011110001 :
#25000
b11111111111111001 &
1+
b1111101101010100111001111 /
#25500
0+
b111111111111111111111010 -
b11111111111111010 2
b1111101101010100111001101 3
b1111111111111010000000000000100100 4
b110000000000111011111111110101010100 6
b00000101010101111101111111110000001100000001100 8
b1111111000000000011101111 :
#26000
b11111111111111010 &
1+
b1111101101010100111001101 /
#26500
0+
b111111111111111111111011 -
b11111111111111011 2
b1111101101010100111001011 3
b1111111111111011000000000000011001 4
b110000000000111011011111110111000110 6
b00000101010101111110010101001000001000010110011 8
b1111111000000000011101101 :
#27000
b11111111111111011 &
1+
b1111101101010100111001011 /
#27500
0+
b111111111111111111111100 -
b11111111111111100 2
b1111101101010100111001001 3
b1111111111111100000000000000010000 4
b110000000000111010111111111000111000 6
b00000101010101111110101010100000000101010110000 8
b1111111000000000011101011 :
#28000
b11111111111111100 &
1+
b1111101101010100111001001 /
#28500
0+
b111111111111111111111101 -
b11111111111111101 2
b1111101101010100111000111 3
b1111111111111101000000000000001001 4
b110000000000111010011111111010101010 6
b00000101010101111110111111111000000011000000011 8
b1111111000000000011101001 :
#29000
b11111111111111101 &
1+
b1111101101010100111000111 /
#29500
0+
b111111111111111111111110 -
b11111111111111110 2
b1111101101010100111000101 3
b1111111111111110000000000000000100 4
b110000000000111001111111111100011100 6
b00000101010101111111010101010000000001010101100 8
b1111111000000000011100111 :
#30000
b11111111111111110 &
1+
b1111101101010100111000101 /
#30500
0+
b111111111111111111111111 -
b11111111111111111 2
b1111101101010100111000011 3
b1111111111111111000000000000000001 4
b110000000000111001011111111110001110 6
b00000101010101111111101010101000000000010101011 8
b1111111000000000011100101 :
#31000
b11111111111111111 &
1+
b1111101101010100111000011 /
#31500
b110100101011001011000011 '
b0010110101000001010 (
b0101101010000 )
b1101001010110010110000110 *
0+
b000000000000000000000000 -
0.
b0000000 1
b00000000000000000 2
b1101001010110010110101110 3
b0000000000000000000000000000000000 4
b000000000000000000000000000000000000 6
b00000000000000000000000000000000000000000000000 8
b0000000000000000000000000 :
b0000000000000000000000000 ;
#32000
0#
b00000000000000000 &
1+
b1101001010110010110101110 /
00
#32500
0+
#33000
0$
1+
#33500
0+
#34000
0%
1+
